com\sevatec\csvtoparquet\CsvWriteSupport.class
com\sevatec\csvtoparquet\Runner.class
com\sevatec\csvtoparquet\ConvertUtils.class
com\sevatec\csvtoparquet\CsvParquetWriter.class
com\sevatec\csvtoparquet\Utils.class
com\sevatec\csvtoparquet\CsvWriteSupport$1.class
